<svg xmlns="http://www.w3.org/2000/svg" xmlns:p="http://www.evolus.vn/Namespace/Pencil" xmlns:pencil="http://www.evolus.vn/Namespace/Pencil" xmlns:html="http://www.w3.org/1999/xhtml" xmlns:xhtml="http://www.w3.org/1999/xhtml" xmlns:office="urn:oasis:names:tc:opendocument:xmlns:office:1.0" xmlns:style="urn:oasis:names:tc:opendocument:xmlns:style:1.0" xmlns:text="urn:oasis:names:tc:opendocument:xmlns:text:1.0" xmlns:table="urn:oasis:names:tc:opendocument:xmlns:table:1.0" xmlns:draw="urn:oasis:names:tc:opendocument:xmlns:drawing:1.0" xmlns:fo="urn:oasis:names:tc:opendocument:xmlns:xsl-fo-compatible:1.0" xmlns:xlink="http://www.w3.org/1999/xlink" xmlns:dc="http://purl.org/dc/elements/1.1/" xmlns:meta="urn:oasis:names:tc:opendocument:xmlns:meta:1.0" xmlns:number="urn:oasis:names:tc:opendocument:xmlns:datastyle:1.0" xmlns:svg="urn:oasis:names:tc:opendocument:xmlns:svg-compatible:1.0" xmlns:chart="urn:oasis:names:tc:opendocument:xmlns:chart:1.0" xmlns:dr3d="urn:oasis:names:tc:opendocument:xmlns:dr3d:1.0" xmlns:math="http://www.w3.org/1998/Math/MathML" xmlns:form="urn:oasis:names:tc:opendocument:xmlns:form:1.0" xmlns:script="urn:oasis:names:tc:opendocument:xmlns:script:1.0" xmlns:ooo="http://openoffice.org/2004/office" xmlns:ooow="http://openoffice.org/2004/writer" xmlns:oooc="http://openoffice.org/2004/calc" xmlns:dom="http://www.w3.org/2001/xml-events" xmlns:xforms="http://www.w3.org/2002/xforms" xmlns:xsd="http://www.w3.org/2001/XMLSchema" xmlns:xsi="http://www.w3.org/2001/XMLSchema-instance" xmlns:rpt="http://openoffice.org/2005/report" xmlns:of="urn:oasis:names:tc:opendocument:xmlns:of:1.2" xmlns:rdfa="http://docs.oasis-open.org/opendocument/meta/rdfa#" xmlns:field="urn:openoffice:names:experimental:ooo-ms-interop:xmlns:field:1.0" xmlns:regexp="http://exslt.org/regular-expressions" xmlns:em="http://exslt.org/math" xmlns:sodipodi="http://sodipodi.sourceforge.net/DTD/sodipodi-0.dtd" xmlns:inkscape="http://www.inkscape.org/namespaces/inkscape" width="703" height="345" id="exportedSVG" version="1.1" pencil:version="1.2.2" sodipodi:docname="tuza_class_diagram"><g inkscape:label="Untitled Page" inkscape:groupmode="layer" id="layer_untitled_page"><g><rect x="0" y="0" width="703" height="345" fill="none"/><g p:type="Group" transform="matrix(1,0,0,1,10.875,106)" id="fe2749873ea445188fd1ab4dce07be8c" p:sizing-gow="198.25" p:sizing-goh="117"><g p:type="Shape" p:def="Evolus.Common:RoundedRect" id="8ac6588ea4174178bacd3a32aa298f04" transform="matrix(1,0,0,1,-0.875,0)" p:sizing-ox="0.125" p:sizing-oy="0" p:sizing-ow="200" p:sizing-oh="36"><p:metadata><p:property name="box">164,36</p:property><p:property name="withBlur">false</p:property><p:property name="radius">0,0</p:property><p:property name="textPadding">0,4.5</p:property><p:property name="fillColor">#FFFFFFFF</p:property><p:property name="strokeColor">#999999FF</p:property><p:property name="strokeStyle">2|</p:property><p:property name="textContent">&amp;lt;&amp;lt;interface&amp;gt;&amp;gt;&lt;br xmlns="http://www.w3.org/1999/xhtml" /&gt;DbConnectionInterface</p:property><p:property name="textFont">"Liberation Sans",Arial,sans-serif|normal|normal|13px|none</p:property><p:property name="textColor">#000000FF</p:property><p:property name="textAlign">1,1</p:property></p:metadata>

            <defs>
                <rect width="162" height="34" rx="0" ry="0" x="0" y="0" style="stroke-width: 2; fill: rgb(255, 255, 255); fill-opacity: 1; stroke: rgb(153, 153, 153); stroke-opacity: 1;" p:name="rrRect" id="caf6289012034bac98ef13aa57ed7c10" transform="translate(1,1)"/>
                <filter height="1.2558399" y="-0.12792" width="1.06396" x="-0.03198" p:name="shadingFilter" id="6cc7477c36a547db98cf1200832f7124">
                    <feGaussianBlur stdDeviation="1" in="SourceAlpha"/>
                </filter>
            </defs>
            <use xlink:href="#caf6289012034bac98ef13aa57ed7c10" transform="translate(2, 2)" p:filter="url(#6cc7477c36a547db98cf1200832f7124)" style="opacity: 0.5; visibility: hidden; display: none;" p:heavy="true" p:name="bgCopy" id="3010b9d66bd34d4eb424dcea4812f929"/>
            <use xlink:href="#caf6289012034bac98ef13aa57ed7c10"/>
            <foreignObject x="4.5" y="0" width="155" height="36" p:name="text" id="acf8302e944f4ae5bba097ee94dd7ebd" style="font-family: &quot;Liberation Sans&quot;, Arial, sans-serif; font-size: 13px; font-weight: normal; font-style: normal; text-decoration: none; fill: rgb(0, 0, 0); fill-opacity: 1; color: rgb(0, 0, 0); text-align: center;"><div xmlns="http://www.w3.org/1999/xhtml">&lt;&lt;interface&gt;&gt;<br />DbConnectionInterface</div></foreignObject>
        </g><g p:type="Shape" p:def="Evolus.Common:RoundedRect" id="b0b3015414114f76ab346141b38a3543" transform="matrix(1,0,0,1,-0.875,32)" p:sizing-ox="0" p:sizing-oy="27" p:sizing-ow="200" p:sizing-oh="7"><p:metadata><p:property name="box">164,7</p:property><p:property name="withBlur">false</p:property><p:property name="radius">0,0</p:property><p:property name="textPadding">0,0.875</p:property><p:property name="fillColor">#FFFFFFFF</p:property><p:property name="strokeColor">#999999FF</p:property><p:property name="strokeStyle">2|</p:property><p:property name="textContent">&lt;div xmlns="http://www.w3.org/1999/xhtml" style="text-align: left;"&gt;&lt;br /&gt;&lt;/div&gt;</p:property><p:property name="textFont">"Liberation Sans",Arial,sans-serif|normal|normal|13px|none</p:property><p:property name="textColor">#000000FF</p:property><p:property name="textAlign">1,1</p:property></p:metadata>

            <defs>
                <rect width="162" height="5" rx="0" ry="0" x="0" y="0" style="stroke-width: 2; fill: rgb(255, 255, 255); fill-opacity: 1; stroke: rgb(153, 153, 153); stroke-opacity: 1;" p:name="rrRect" id="042f6d1d2510466b8769de2333fe95db" transform="translate(1,1)"/>
                <filter height="1.2558399" y="-0.12792" width="1.06396" x="-0.03198" p:name="shadingFilter" id="4a7948c175d1422ba7557aa690451380">
                    <feGaussianBlur stdDeviation="1" in="SourceAlpha"/>
                </filter>
            </defs>
            <use xlink:href="#042f6d1d2510466b8769de2333fe95db" transform="translate(2, 2)" p:filter="url(#4a7948c175d1422ba7557aa690451380)" style="opacity: 0.5; visibility: hidden; display: none;" p:heavy="true" p:name="bgCopy" id="4c9c4112860044808106a9f3db894ba5"/>
            <use xlink:href="#042f6d1d2510466b8769de2333fe95db"/>
            <foreignObject x="0.875" y="-5" width="162.25" height="18" p:name="text" id="427a4f37873c4d7498e5f4fe7e6e0f8d" style="font-family: &quot;Liberation Sans&quot;, Arial, sans-serif; font-size: 13px; font-weight: normal; font-style: normal; text-decoration: none; fill: rgb(0, 0, 0); fill-opacity: 1; color: rgb(0, 0, 0); text-align: center;"><div xmlns="http://www.w3.org/1999/xhtml"><div style="text-align: left;"><br /></div></div></foreignObject>
        </g><g p:type="Shape" p:def="Evolus.Common:RoundedRect" id="479a935606d44524a15e6978c932af7f" transform="matrix(1,0,0,1,-0.875,38)" p:sizing-ox="0.125" p:sizing-oy="39" p:sizing-ow="200" p:sizing-oh="80"><p:metadata><p:property name="box">164,80</p:property><p:property name="withBlur">false</p:property><p:property name="radius">0,0</p:property><p:property name="textPadding">0,10</p:property><p:property name="fillColor">#FFFFFFFF</p:property><p:property name="strokeColor">#999999FF</p:property><p:property name="strokeStyle">2|</p:property><p:property name="textContent">&lt;div xmlns="http://www.w3.org/1999/xhtml" style="text-align: left;"&gt;+ insert()&lt;br /&gt;+ select()&lt;br /&gt;+ update()&lt;br /&gt;+ delete()&lt;/div&gt;
                </p:property><p:property name="textFont">"Liberation Sans",Arial,sans-serif|normal|normal|13px|none</p:property><p:property name="textColor">#000000FF</p:property><p:property name="textAlign">1,1</p:property></p:metadata>

            <defs>
                <rect width="162" height="78" rx="0" ry="0" x="0" y="0" style="stroke-width: 2; fill: rgb(255, 255, 255); fill-opacity: 1; stroke: rgb(153, 153, 153); stroke-opacity: 1;" p:name="rrRect" id="4f5eaa8d0135425896a0d5e5285d917b" transform="translate(1,1)"/>
                <filter height="1.2558399" y="-0.12792" width="1.06396" x="-0.03198" p:name="shadingFilter" id="cfa17c30c2f44b78bcdfacb661f95436">
                    <feGaussianBlur stdDeviation="1" in="SourceAlpha"/>
                </filter>
            </defs>
            <use xlink:href="#4f5eaa8d0135425896a0d5e5285d917b" transform="translate(2, 2)" p:filter="url(#cfa17c30c2f44b78bcdfacb661f95436)" style="opacity: 0.5; visibility: hidden; display: none;" p:heavy="true" p:name="bgCopy" id="1dee77cfb1034fa882bd8149d2f53085"/>
            <use xlink:href="#4f5eaa8d0135425896a0d5e5285d917b"/>
            <foreignObject x="10" y="4" width="144" height="72" p:name="text" id="71c302f62193499aa359e961c433160b" style="font-family: &quot;Liberation Sans&quot;, Arial, sans-serif; font-size: 13px; font-weight: normal; font-style: normal; text-decoration: none; fill: rgb(0, 0, 0); fill-opacity: 1; color: rgb(0, 0, 0); text-align: center;"><div xmlns="http://www.w3.org/1999/xhtml"><div style="text-align: left;">+ insert()<br />+ select()<br />+ update()<br />+ delete()</div>
                </div></foreignObject>
        </g></g><g p:type="Group" transform="matrix(1,0,0,1,398.875,10)" id="2c4bb78863de4b41ba82c1adf028c4c8" p:sizing-gow="292.25" p:sizing-goh="79"><g p:type="Shape" p:def="Evolus.Common:RoundedRect" id="8111c87217224c6186e9c315cd97c155" transform="matrix(1,0,0,1,-0.875,0)" p:sizing-ox="0.125" p:sizing-oy="0" p:sizing-ow="294" p:sizing-oh="36"><p:metadata><p:property name="box">294,36</p:property><p:property name="withBlur">false</p:property><p:property name="radius">0,0</p:property><p:property name="textPadding">0,4.5</p:property><p:property name="fillColor">#FFFFFFFF</p:property><p:property name="strokeColor">#999999FF</p:property><p:property name="strokeStyle">2|</p:property><p:property name="textContent">&amp;lt;&amp;lt;interface&amp;gt;&amp;gt;&lt;br xmlns="http://www.w3.org/1999/xhtml" /&gt;DbConnectable</p:property><p:property name="textFont">"Liberation Sans",Arial,sans-serif|normal|normal|13px|none</p:property><p:property name="textColor">#000000FF</p:property><p:property name="textAlign">1,1</p:property></p:metadata>

            <defs>
                <rect width="292" height="34" rx="0" ry="0" x="0" y="0" style="stroke-width: 2; fill: rgb(255, 255, 255); fill-opacity: 1; stroke: rgb(153, 153, 153); stroke-opacity: 1;" p:name="rrRect" id="4eba3bc929e046689fc1008f7fcc60c1" transform="translate(1,1)"/>
                <filter height="1.2558399" y="-0.12792" width="1.06396" x="-0.03198" p:name="shadingFilter" id="826af5ab4931465da9cc3791ec90cfc7">
                    <feGaussianBlur stdDeviation="1" in="SourceAlpha"/>
                </filter>
            </defs>
            <use xlink:href="#4eba3bc929e046689fc1008f7fcc60c1" transform="translate(2, 2)" p:filter="url(#826af5ab4931465da9cc3791ec90cfc7)" style="opacity: 0.5; visibility: hidden; display: none;" p:heavy="true" p:name="bgCopy" id="7db85c47e9a243888b9040959e19e51d"/>
            <use xlink:href="#4eba3bc929e046689fc1008f7fcc60c1"/>
            <foreignObject x="4.5" y="0" width="285" height="36" p:name="text" id="342ea92a5c5541b2944335a293140107" style="font-family: &quot;Liberation Sans&quot;, Arial, sans-serif; font-size: 13px; font-weight: normal; font-style: normal; text-decoration: none; fill: rgb(0, 0, 0); fill-opacity: 1; color: rgb(0, 0, 0); text-align: center;"><div xmlns="http://www.w3.org/1999/xhtml">&lt;&lt;interface&gt;&gt;<br />DbConnectable</div></foreignObject>
        </g><g p:type="Shape" p:def="Evolus.Common:RoundedRect" id="ad9ebb77db8e49e98275a34c5f3e4662" transform="matrix(1,0,0,1,-0.875,32)" p:sizing-ox="0" p:sizing-oy="27" p:sizing-ow="294" p:sizing-oh="7"><p:metadata><p:property name="box">294,7</p:property><p:property name="withBlur">false</p:property><p:property name="radius">0,0</p:property><p:property name="textPadding">0,0.875</p:property><p:property name="fillColor">#FFFFFFFF</p:property><p:property name="strokeColor">#999999FF</p:property><p:property name="strokeStyle">2|</p:property><p:property name="textContent">&lt;div xmlns="http://www.w3.org/1999/xhtml" style="text-align: left;"&gt;&lt;br /&gt;&lt;/div&gt;</p:property><p:property name="textFont">"Liberation Sans",Arial,sans-serif|normal|normal|13px|none</p:property><p:property name="textColor">#000000FF</p:property><p:property name="textAlign">1,1</p:property></p:metadata>

            <defs>
                <rect width="292" height="5" rx="0" ry="0" x="0" y="0" style="stroke-width: 2; fill: rgb(255, 255, 255); fill-opacity: 1; stroke: rgb(153, 153, 153); stroke-opacity: 1;" p:name="rrRect" id="81b0b3869bc4411b86abb52bf121f3a7" transform="translate(1,1)"/>
                <filter height="1.2558399" y="-0.12792" width="1.06396" x="-0.03198" p:name="shadingFilter" id="f50b38845d6c4322b3ca832ca6fd1161">
                    <feGaussianBlur stdDeviation="1" in="SourceAlpha"/>
                </filter>
            </defs>
            <use xlink:href="#81b0b3869bc4411b86abb52bf121f3a7" transform="translate(2, 2)" p:filter="url(#f50b38845d6c4322b3ca832ca6fd1161)" style="opacity: 0.5; visibility: hidden; display: none;" p:heavy="true" p:name="bgCopy" id="e0b0d245ec284427b9d7d2f6e9295559"/>
            <use xlink:href="#81b0b3869bc4411b86abb52bf121f3a7"/>
            <foreignObject x="0.875" y="-5" width="292.25" height="18" p:name="text" id="c33f051227da4855b7efc3241a8752a1" style="font-family: &quot;Liberation Sans&quot;, Arial, sans-serif; font-size: 13px; font-weight: normal; font-style: normal; text-decoration: none; fill: rgb(0, 0, 0); fill-opacity: 1; color: rgb(0, 0, 0); text-align: center;"><div xmlns="http://www.w3.org/1999/xhtml"><div style="text-align: left;"><br /></div></div></foreignObject>
        </g><g p:type="Shape" p:def="Evolus.Common:RoundedRect" id="39f28bbe810c4632bfb2473086dfdb53" transform="matrix(1,0,0,1,-0.875,38)" p:sizing-ox="0.125" p:sizing-oy="39" p:sizing-ow="294" p:sizing-oh="42"><p:metadata><p:property name="box">294,42</p:property><p:property name="withBlur">false</p:property><p:property name="radius">0,0</p:property><p:property name="textPadding">0,5.25</p:property><p:property name="fillColor">#FFFFFFFF</p:property><p:property name="strokeColor">#999999FF</p:property><p:property name="strokeStyle">2|</p:property><p:property name="textContent">&lt;div xmlns="http://www.w3.org/1999/xhtml" style="text-align: left;"&gt;+ getDbConnection() : DbConnectionInterface&lt;/div&gt;
                </p:property><p:property name="textFont">"Liberation Sans",Arial,sans-serif|normal|normal|13px|none</p:property><p:property name="textColor">#000000FF</p:property><p:property name="textAlign">1,1</p:property></p:metadata>

            <defs>
                <rect width="292" height="40" rx="0" ry="0" x="0" y="0" style="stroke-width: 2; fill: rgb(255, 255, 255); fill-opacity: 1; stroke: rgb(153, 153, 153); stroke-opacity: 1;" p:name="rrRect" id="af7d16ee8da24385bc48956ba6502b5d" transform="translate(1,1)"/>
                <filter height="1.2558399" y="-0.12792" width="1.06396" x="-0.03198" p:name="shadingFilter" id="4759ca47a1c541139d569443043d45e6">
                    <feGaussianBlur stdDeviation="1" in="SourceAlpha"/>
                </filter>
            </defs>
            <use xlink:href="#af7d16ee8da24385bc48956ba6502b5d" transform="translate(2, 2)" p:filter="url(#4759ca47a1c541139d569443043d45e6)" style="opacity: 0.5; visibility: hidden; display: none;" p:heavy="true" p:name="bgCopy" id="e89dca9e05ad4efcbcf9d806757ee4fb"/>
            <use xlink:href="#af7d16ee8da24385bc48956ba6502b5d"/>
            <foreignObject x="5.25" y="12" width="283.5" height="18" p:name="text" id="f94fc6a0de1e4e69a99a75e95ed78c96" style="font-family: &quot;Liberation Sans&quot;, Arial, sans-serif; font-size: 13px; font-weight: normal; font-style: normal; text-decoration: none; fill: rgb(0, 0, 0); fill-opacity: 1; color: rgb(0, 0, 0); text-align: center;"><div xmlns="http://www.w3.org/1999/xhtml"><div style="text-align: left;">+ getDbConnection() : DbConnectionInterface</div>
                </div></foreignObject>
        </g></g><g p:type="Group" transform="matrix(1,0,0,1,399.875,103)" id="eb9288400cfe4e85a6cec922a944ba1f" p:sizing-gow="292.25" p:sizing-goh="79"><g p:type="Shape" p:def="Evolus.Common:RoundedRect" id="2cc664941d4b48cbbf270409cfa8cd2d" transform="matrix(1,0,0,1,-0.875,0)" p:sizing-ox="0.125" p:sizing-oy="0" p:sizing-ow="294" p:sizing-oh="36"><p:metadata><p:property name="box">294,36</p:property><p:property name="withBlur">false</p:property><p:property name="radius">0,0</p:property><p:property name="textPadding">0,4.5</p:property><p:property name="fillColor">#FFFFFFFF</p:property><p:property name="strokeColor">#999999FF</p:property><p:property name="strokeStyle">2|</p:property><p:property name="textContent">&amp;lt;&amp;lt;trait&amp;gt;&amp;gt;&lt;br xmlns="http://www.w3.org/1999/xhtml" /&gt;DbAware</p:property><p:property name="textFont">"Liberation Sans",Arial,sans-serif|normal|normal|13px|none</p:property><p:property name="textColor">#000000FF</p:property><p:property name="textAlign">1,1</p:property></p:metadata>

            <defs>
                <rect width="292" height="34" rx="0" ry="0" x="0" y="0" style="stroke-width: 2; fill: rgb(255, 255, 255); fill-opacity: 1; stroke: rgb(153, 153, 153); stroke-opacity: 1;" p:name="rrRect" id="ac73fe5aa77d4dac9ed15c17137fd163" transform="translate(1,1)"/>
                <filter height="1.2558399" y="-0.12792" width="1.06396" x="-0.03198" p:name="shadingFilter" id="1c06c0b8b2814ed6b5b516ae417b7d8a">
                    <feGaussianBlur stdDeviation="1" in="SourceAlpha"/>
                </filter>
            </defs>
            <use xlink:href="#ac73fe5aa77d4dac9ed15c17137fd163" transform="translate(2, 2)" p:filter="url(#1c06c0b8b2814ed6b5b516ae417b7d8a)" style="opacity: 0.5; visibility: hidden; display: none;" p:heavy="true" p:name="bgCopy" id="123b595f2f3640849cf1f56e39d418dd"/>
            <use xlink:href="#ac73fe5aa77d4dac9ed15c17137fd163"/>
            <foreignObject x="4.5" y="0" width="285" height="36" p:name="text" id="8c2211cae744485bab2546a457fa2f69" style="font-family: &quot;Liberation Sans&quot;, Arial, sans-serif; font-size: 13px; font-weight: normal; font-style: normal; text-decoration: none; fill: rgb(0, 0, 0); fill-opacity: 1; color: rgb(0, 0, 0); text-align: center;"><div xmlns="http://www.w3.org/1999/xhtml">&lt;&lt;trait&gt;&gt;<br />DbAware</div></foreignObject>
        </g><g p:type="Shape" p:def="Evolus.Common:RoundedRect" id="b1a790ccefcb44cb9e7e0b02b683ae8e" transform="matrix(1,0,0,1,-0.875,32)" p:sizing-ox="0" p:sizing-oy="27" p:sizing-ow="294" p:sizing-oh="7"><p:metadata><p:property name="box">294,7</p:property><p:property name="withBlur">false</p:property><p:property name="radius">0,0</p:property><p:property name="textPadding">0,0.875</p:property><p:property name="fillColor">#FFFFFFFF</p:property><p:property name="strokeColor">#999999FF</p:property><p:property name="strokeStyle">2|</p:property><p:property name="textContent">&lt;div xmlns="http://www.w3.org/1999/xhtml" style="text-align: left;"&gt;&lt;br /&gt;&lt;/div&gt;</p:property><p:property name="textFont">"Liberation Sans",Arial,sans-serif|normal|normal|13px|none</p:property><p:property name="textColor">#000000FF</p:property><p:property name="textAlign">1,1</p:property></p:metadata>

            <defs>
                <rect width="292" height="5" rx="0" ry="0" x="0" y="0" style="stroke-width: 2; fill: rgb(255, 255, 255); fill-opacity: 1; stroke: rgb(153, 153, 153); stroke-opacity: 1;" p:name="rrRect" id="2200ab7283054844ad22cfff88bff63b" transform="translate(1,1)"/>
                <filter height="1.2558399" y="-0.12792" width="1.06396" x="-0.03198" p:name="shadingFilter" id="0006f5c265c94aa48f796c14da666af8">
                    <feGaussianBlur stdDeviation="1" in="SourceAlpha"/>
                </filter>
            </defs>
            <use xlink:href="#2200ab7283054844ad22cfff88bff63b" transform="translate(2, 2)" p:filter="url(#0006f5c265c94aa48f796c14da666af8)" style="opacity: 0.5; visibility: hidden; display: none;" p:heavy="true" p:name="bgCopy" id="f3a1801cf0b247ad90b4f93b97df4467"/>
            <use xlink:href="#2200ab7283054844ad22cfff88bff63b"/>
            <foreignObject x="0.875" y="-5" width="292.25" height="18" p:name="text" id="132f4802f9524991b625f3dd24b4829c" style="font-family: &quot;Liberation Sans&quot;, Arial, sans-serif; font-size: 13px; font-weight: normal; font-style: normal; text-decoration: none; fill: rgb(0, 0, 0); fill-opacity: 1; color: rgb(0, 0, 0); text-align: center;"><div xmlns="http://www.w3.org/1999/xhtml"><div style="text-align: left;"><br /></div></div></foreignObject>
        </g><g p:type="Shape" p:def="Evolus.Common:RoundedRect" id="4b157078b0594d17b6ef516b6a72b7ee" transform="matrix(1,0,0,1,-0.875,38)" p:sizing-ox="0.125" p:sizing-oy="39" p:sizing-ow="294" p:sizing-oh="42"><p:metadata><p:property name="box">294,42</p:property><p:property name="withBlur">false</p:property><p:property name="radius">0,0</p:property><p:property name="textPadding">0,5.25</p:property><p:property name="fillColor">#FFFFFFFF</p:property><p:property name="strokeColor">#999999FF</p:property><p:property name="strokeStyle">2|</p:property><p:property name="textContent">&lt;div xmlns="http://www.w3.org/1999/xhtml" style="text-align: left;"&gt;+ getDbConnection() : DbConnectionInterface&lt;/div&gt;
                </p:property><p:property name="textFont">"Liberation Sans",Arial,sans-serif|normal|normal|13px|none</p:property><p:property name="textColor">#000000FF</p:property><p:property name="textAlign">1,1</p:property></p:metadata>

            <defs>
                <rect width="292" height="40" rx="0" ry="0" x="0" y="0" style="stroke-width: 2; fill: rgb(255, 255, 255); fill-opacity: 1; stroke: rgb(153, 153, 153); stroke-opacity: 1;" p:name="rrRect" id="5154f2a79f45451ebb23e8507a32934a" transform="translate(1,1)"/>
                <filter height="1.2558399" y="-0.12792" width="1.06396" x="-0.03198" p:name="shadingFilter" id="28fa244186694bac92223824182508fd">
                    <feGaussianBlur stdDeviation="1" in="SourceAlpha"/>
                </filter>
            </defs>
            <use xlink:href="#5154f2a79f45451ebb23e8507a32934a" transform="translate(2, 2)" p:filter="url(#28fa244186694bac92223824182508fd)" style="opacity: 0.5; visibility: hidden; display: none;" p:heavy="true" p:name="bgCopy" id="2997683555ae4a53abc590dab04731b4"/>
            <use xlink:href="#5154f2a79f45451ebb23e8507a32934a"/>
            <foreignObject x="5.25" y="12" width="283.5" height="18" p:name="text" id="9672e74939de4706b06ecc08c961eec5" style="font-family: &quot;Liberation Sans&quot;, Arial, sans-serif; font-size: 13px; font-weight: normal; font-style: normal; text-decoration: none; fill: rgb(0, 0, 0); fill-opacity: 1; color: rgb(0, 0, 0); text-align: center;"><div xmlns="http://www.w3.org/1999/xhtml"><div style="text-align: left;">+ getDbConnection() : DbConnectionInterface</div>
                </div></foreignObject>
        </g></g><g p:type="Group" transform="matrix(1,0,0,1,197.875,10)" id="3dfab309b1394bf1b2e27121a5be9abe" p:sizing-gow="198.25" p:sizing-goh="117"><g p:type="Shape" p:def="Evolus.Common:RoundedRect" id="6ced880de5bd477ab651793aff3f5839" transform="matrix(1,0,0,1,-0.875,-1)" p:sizing-ox="0.125" p:sizing-oy="0" p:sizing-ow="200" p:sizing-oh="36"><p:metadata><p:property name="box">164,36</p:property><p:property name="withBlur">false</p:property><p:property name="radius">0,0</p:property><p:property name="textPadding">0,4.5</p:property><p:property name="fillColor">#FFFFFFFF</p:property><p:property name="strokeColor">#999999FF</p:property><p:property name="strokeStyle">2|</p:property><p:property name="textContent">DbConnection</p:property><p:property name="textFont">"Liberation Sans",Arial,sans-serif|normal|normal|13px|none</p:property><p:property name="textColor">#000000FF</p:property><p:property name="textAlign">1,1</p:property></p:metadata>

            <defs>
                <rect width="162" height="34" rx="0" ry="0" x="0" y="0" style="stroke-width: 2; fill: rgb(255, 255, 255); fill-opacity: 1; stroke: rgb(153, 153, 153); stroke-opacity: 1;" p:name="rrRect" id="662fbe7079cb49ae980e0ae5a86eb5d2" transform="translate(1,1)"/>
                <filter height="1.2558399" y="-0.12792" width="1.06396" x="-0.03198" p:name="shadingFilter" id="4a8d59c3ffb942c78bf9f2ea33c0b66d">
                    <feGaussianBlur stdDeviation="1" in="SourceAlpha"/>
                </filter>
            </defs>
            <use xlink:href="#662fbe7079cb49ae980e0ae5a86eb5d2" transform="translate(2, 2)" p:filter="url(#4a8d59c3ffb942c78bf9f2ea33c0b66d)" style="opacity: 0.5; visibility: hidden; display: none;" p:heavy="true" p:name="bgCopy" id="f13aeb61eb304a7a882a62bb0e006129"/>
            <use xlink:href="#662fbe7079cb49ae980e0ae5a86eb5d2"/>
            <foreignObject x="4.5" y="9" width="155" height="18" p:name="text" id="9ea3d96281bd42e3b89efa5ce2847fff" style="font-family: &quot;Liberation Sans&quot;, Arial, sans-serif; font-size: 13px; font-weight: normal; font-style: normal; text-decoration: none; fill: rgb(0, 0, 0); fill-opacity: 1; color: rgb(0, 0, 0); text-align: center;"><div xmlns="http://www.w3.org/1999/xhtml">DbConnection</div></foreignObject>
        </g><g p:type="Shape" p:def="Evolus.Common:RoundedRect" id="e3da48a970954691859ab826a7bbe6ad" transform="matrix(1,0,0,1,-0.875,32)" p:sizing-ox="0" p:sizing-oy="27" p:sizing-ow="200" p:sizing-oh="7"><p:metadata><p:property name="box">164,7</p:property><p:property name="withBlur">false</p:property><p:property name="radius">0,0</p:property><p:property name="textPadding">0,0.875</p:property><p:property name="fillColor">#FFFFFFFF</p:property><p:property name="strokeColor">#999999FF</p:property><p:property name="strokeStyle">2|</p:property><p:property name="textContent">&lt;div xmlns="http://www.w3.org/1999/xhtml" style="text-align: left;"&gt;&lt;br /&gt;&lt;/div&gt;</p:property><p:property name="textFont">"Liberation Sans",Arial,sans-serif|normal|normal|13px|none</p:property><p:property name="textColor">#000000FF</p:property><p:property name="textAlign">1,1</p:property></p:metadata>

            <defs>
                <rect width="162" height="5" rx="0" ry="0" x="0" y="0" style="stroke-width: 2; fill: rgb(255, 255, 255); fill-opacity: 1; stroke: rgb(153, 153, 153); stroke-opacity: 1;" p:name="rrRect" id="da709d85a614427093740b56a19f4e70" transform="translate(1,1)"/>
                <filter height="1.2558399" y="-0.12792" width="1.06396" x="-0.03198" p:name="shadingFilter" id="e382ed5c096548a7ace2407d5c178409">
                    <feGaussianBlur stdDeviation="1" in="SourceAlpha"/>
                </filter>
            </defs>
            <use xlink:href="#da709d85a614427093740b56a19f4e70" transform="translate(2, 2)" p:filter="url(#e382ed5c096548a7ace2407d5c178409)" style="opacity: 0.5; visibility: hidden; display: none;" p:heavy="true" p:name="bgCopy" id="5644ec80df5e4428932b25e044d177ba"/>
            <use xlink:href="#da709d85a614427093740b56a19f4e70"/>
            <foreignObject x="0.875" y="-5" width="162.25" height="18" p:name="text" id="1129a72b9f3f474b928c3536eaad84ec" style="font-family: &quot;Liberation Sans&quot;, Arial, sans-serif; font-size: 13px; font-weight: normal; font-style: normal; text-decoration: none; fill: rgb(0, 0, 0); fill-opacity: 1; color: rgb(0, 0, 0); text-align: center;"><div xmlns="http://www.w3.org/1999/xhtml"><div style="text-align: left;"><br /></div></div></foreignObject>
        </g><g p:type="Shape" p:def="Evolus.Common:RoundedRect" id="426e1c04efea4dacad170f347d10539d" transform="matrix(1,0,0,1,-0.875,38)" p:sizing-ox="0.125" p:sizing-oy="39" p:sizing-ow="200" p:sizing-oh="80"><p:metadata><p:property name="box">164,79</p:property><p:property name="withBlur">false</p:property><p:property name="radius">0,0</p:property><p:property name="textPadding">0,9.875</p:property><p:property name="fillColor">#FFFFFFFF</p:property><p:property name="strokeColor">#999999FF</p:property><p:property name="strokeStyle">2|</p:property><p:property name="textContent">&lt;div xmlns="http://www.w3.org/1999/xhtml" style="text-align: left;"&gt;+ insert()&lt;br /&gt;+ select()&lt;br /&gt;+ update()&lt;br /&gt;+ delete()&lt;/div&gt;
                </p:property><p:property name="textFont">"Liberation Sans",Arial,sans-serif|normal|normal|13px|none</p:property><p:property name="textColor">#000000FF</p:property><p:property name="textAlign">1,1</p:property></p:metadata>

            <defs>
                <rect width="162" height="77" rx="0" ry="0" x="0" y="0" style="stroke-width: 2; fill: rgb(255, 255, 255); fill-opacity: 1; stroke: rgb(153, 153, 153); stroke-opacity: 1;" p:name="rrRect" id="687eea0af5a14145b0562994adbda801" transform="translate(1,1)"/>
                <filter height="1.2558399" y="-0.12792" width="1.06396" x="-0.03198" p:name="shadingFilter" id="f7b9289c5bfe4b45acab22fc946fbb25">
                    <feGaussianBlur stdDeviation="1" in="SourceAlpha"/>
                </filter>
            </defs>
            <use xlink:href="#687eea0af5a14145b0562994adbda801" transform="translate(2, 2)" p:filter="url(#f7b9289c5bfe4b45acab22fc946fbb25)" style="opacity: 0.5; visibility: hidden; display: none;" p:heavy="true" p:name="bgCopy" id="055cbc9c205741a8806994e5ff991ded"/>
            <use xlink:href="#687eea0af5a14145b0562994adbda801"/>
            <foreignObject x="9.875" y="4" width="144.25" height="72" p:name="text" id="53a95f54100844f591056213ef8a30c8" style="font-family: &quot;Liberation Sans&quot;, Arial, sans-serif; font-size: 13px; font-weight: normal; font-style: normal; text-decoration: none; fill: rgb(0, 0, 0); fill-opacity: 1; color: rgb(0, 0, 0); text-align: center;"><div xmlns="http://www.w3.org/1999/xhtml"><div style="text-align: left;">+ insert()<br />+ select()<br />+ update()<br />+ delete()</div>
                </div></foreignObject>
        </g></g><g p:type="Group" transform="matrix(1,0,0,1,197.875,219)" id="1747e4bcf7604414842b2ffb64119519" p:sizing-gow="198.25" p:sizing-goh="117"><g p:type="Shape" p:def="Evolus.Common:RoundedRect" id="8b2ccde509dd4b81ac9d9685443e5063" transform="matrix(1,0,0,1,-0.875,-1)" p:sizing-ox="0.125" p:sizing-oy="0" p:sizing-ow="200" p:sizing-oh="36"><p:metadata><p:property name="box">164,36</p:property><p:property name="withBlur">false</p:property><p:property name="radius">0,0</p:property><p:property name="textPadding">0,4.5</p:property><p:property name="fillColor">#FFFFFFFF</p:property><p:property name="strokeColor">#999999FF</p:property><p:property name="strokeStyle">2|</p:property><p:property name="textContent">DbException</p:property><p:property name="textFont">"Liberation Sans",Arial,sans-serif|normal|normal|13px|none</p:property><p:property name="textColor">#000000FF</p:property><p:property name="textAlign">1,1</p:property></p:metadata>

            <defs>
                <rect width="162" height="34" rx="0" ry="0" x="0" y="0" style="stroke-width: 2; fill: rgb(255, 255, 255); fill-opacity: 1; stroke: rgb(153, 153, 153); stroke-opacity: 1;" p:name="rrRect" id="ab1a18d9abf1401d8c3a34ad9b0a816b" transform="translate(1,1)"/>
                <filter height="1.2558399" y="-0.12792" width="1.06396" x="-0.03198" p:name="shadingFilter" id="126f99586c7f4252a3011742fccb0d48">
                    <feGaussianBlur stdDeviation="1" in="SourceAlpha"/>
                </filter>
            </defs>
            <use xlink:href="#ab1a18d9abf1401d8c3a34ad9b0a816b" transform="translate(2, 2)" p:filter="url(#126f99586c7f4252a3011742fccb0d48)" style="opacity: 0.5; visibility: hidden; display: none;" p:heavy="true" p:name="bgCopy" id="eba6ce9d9e58447ba2aec23d1bf7b3d0"/>
            <use xlink:href="#ab1a18d9abf1401d8c3a34ad9b0a816b"/>
            <foreignObject x="4.5" y="9" width="155" height="18" p:name="text" id="775311874aca43708ca027af0364a26a" style="font-family: &quot;Liberation Sans&quot;, Arial, sans-serif; font-size: 13px; font-weight: normal; font-style: normal; text-decoration: none; fill: rgb(0, 0, 0); fill-opacity: 1; color: rgb(0, 0, 0); text-align: center;"><div xmlns="http://www.w3.org/1999/xhtml">DbException</div></foreignObject>
        </g><g p:type="Shape" p:def="Evolus.Common:RoundedRect" id="c5da5d01afd347e6a98618477f21273e" transform="matrix(1,0,0,1,-0.875,32)" p:sizing-ox="0" p:sizing-oy="27" p:sizing-ow="200" p:sizing-oh="7"><p:metadata><p:property name="box">164,7</p:property><p:property name="withBlur">false</p:property><p:property name="radius">0,0</p:property><p:property name="textPadding">0,0.875</p:property><p:property name="fillColor">#FFFFFFFF</p:property><p:property name="strokeColor">#999999FF</p:property><p:property name="strokeStyle">2|</p:property><p:property name="textContent">&lt;div xmlns="http://www.w3.org/1999/xhtml" style="text-align: left;"&gt;&lt;br /&gt;&lt;/div&gt;</p:property><p:property name="textFont">"Liberation Sans",Arial,sans-serif|normal|normal|13px|none</p:property><p:property name="textColor">#000000FF</p:property><p:property name="textAlign">1,1</p:property></p:metadata>

            <defs>
                <rect width="162" height="5" rx="0" ry="0" x="0" y="0" style="stroke-width: 2; fill: rgb(255, 255, 255); fill-opacity: 1; stroke: rgb(153, 153, 153); stroke-opacity: 1;" p:name="rrRect" id="be92ee3b2071492493e41dad7033b6af" transform="translate(1,1)"/>
                <filter height="1.2558399" y="-0.12792" width="1.06396" x="-0.03198" p:name="shadingFilter" id="ba1ac68013cd4678b1a9034bd4a9e297">
                    <feGaussianBlur stdDeviation="1" in="SourceAlpha"/>
                </filter>
            </defs>
            <use xlink:href="#be92ee3b2071492493e41dad7033b6af" transform="translate(2, 2)" p:filter="url(#ba1ac68013cd4678b1a9034bd4a9e297)" style="opacity: 0.5; visibility: hidden; display: none;" p:heavy="true" p:name="bgCopy" id="9d735aabb6e34e0095e0f32007e17915"/>
            <use xlink:href="#be92ee3b2071492493e41dad7033b6af"/>
            <foreignObject x="0.875" y="-5" width="162.25" height="18" p:name="text" id="ae20b2c8544f4fc2b984d98cc5f7dc99" style="font-family: &quot;Liberation Sans&quot;, Arial, sans-serif; font-size: 13px; font-weight: normal; font-style: normal; text-decoration: none; fill: rgb(0, 0, 0); fill-opacity: 1; color: rgb(0, 0, 0); text-align: center;"><div xmlns="http://www.w3.org/1999/xhtml"><div style="text-align: left;"><br /></div></div></foreignObject>
        </g><g p:type="Shape" p:def="Evolus.Common:RoundedRect" id="4a84c898a157493095804f250acfb09a" transform="matrix(1,0,0,1,-0.875,38)" p:sizing-ox="0.125" p:sizing-oy="39" p:sizing-ow="200" p:sizing-oh="80"><p:metadata><p:property name="box">164,79</p:property><p:property name="withBlur">false</p:property><p:property name="radius">0,0</p:property><p:property name="textPadding">0,9.875</p:property><p:property name="fillColor">#FFFFFFFF</p:property><p:property name="strokeColor">#999999FF</p:property><p:property name="strokeStyle">2|</p:property><p:property name="textContent">&lt;div xmlns="http://www.w3.org/1999/xhtml" style="text-align: left;"&gt;+ insert()&lt;br /&gt;+ select()&lt;br /&gt;+ update()&lt;br /&gt;+ delete()&lt;/div&gt;
                </p:property><p:property name="textFont">"Liberation Sans",Arial,sans-serif|normal|normal|13px|none</p:property><p:property name="textColor">#000000FF</p:property><p:property name="textAlign">1,1</p:property></p:metadata>

            <defs>
                <rect width="162" height="77" rx="0" ry="0" x="0" y="0" style="stroke-width: 2; fill: rgb(255, 255, 255); fill-opacity: 1; stroke: rgb(153, 153, 153); stroke-opacity: 1;" p:name="rrRect" id="4a40da80069f457a80d85f808b32a5ae" transform="translate(1,1)"/>
                <filter height="1.2558399" y="-0.12792" width="1.06396" x="-0.03198" p:name="shadingFilter" id="554c3049dcc7410c90bfc6f3841f47c7">
                    <feGaussianBlur stdDeviation="1" in="SourceAlpha"/>
                </filter>
            </defs>
            <use xlink:href="#4a40da80069f457a80d85f808b32a5ae" transform="translate(2, 2)" p:filter="url(#554c3049dcc7410c90bfc6f3841f47c7)" style="opacity: 0.5; visibility: hidden; display: none;" p:heavy="true" p:name="bgCopy" id="0f9f0512aeee4e5c822dcc4135a82d3a"/>
            <use xlink:href="#4a40da80069f457a80d85f808b32a5ae"/>
            <foreignObject x="9.875" y="4" width="144.25" height="72" p:name="text" id="121c8156343b4ebfbb13335ddd6eee5b" style="font-family: &quot;Liberation Sans&quot;, Arial, sans-serif; font-size: 13px; font-weight: normal; font-style: normal; text-decoration: none; fill: rgb(0, 0, 0); fill-opacity: 1; color: rgb(0, 0, 0); text-align: center;"><div xmlns="http://www.w3.org/1999/xhtml"><div style="text-align: left;">+ insert()<br />+ select()<br />+ update()<br />+ delete()</div>
                </div></foreignObject>
        </g></g><g p:type="Shape" p:def="Evolus.Common:arrow" id="f15bd738ad4344d5bd0ba567b2095024" transform="matrix(1,0,0,1,169,194)"><p:metadata><p:property name="startPin">5,-10</p:property><p:property xmlns:ns9889235="http://www.evolus.vn/Namespace/Pencil" name="endPin" ns9889235:connectedShapeId="426e1c04efea4dacad170f347d10539d" ns9889235:connectedOutletId="bottom-center" ns9889235:viax="110" ns9889235:viay="-57">110,-67</p:property><p:property name="withStartArrow">true</p:property><p:property name="withEndArrow">false</p:property><p:property name="mode">curvy</p:property><p:property name="detached">false</p:property><p:property name="strokeColor">#999999FF</p:property><p:property name="strokeStyle">2|5,5</p:property><p:property name="textContent"/><p:property name="textFont">"Liberation Sans",Arial,sans-serif|normal|normal|13px|none</p:property><p:property name="textColor">#000000FF</p:property><p:property name="textAlign">1,1</p:property></p:metadata>
            <defs>
                <path style="stroke-linejoin: round; fill: none;" p:name="path" id="98383d4462a24a65aa8cf664be5d3454" d="M 11 -4 L 5 -10 L 11 -16 M 5 -10 C 65 -10 110 -7 110 -67"/>
            </defs>
            <use xlink:href="#98383d4462a24a65aa8cf664be5d3454" stroke-width="10" stroke-opacity="0" stroke="#FF0000"/>
            <use xlink:href="#98383d4462a24a65aa8cf664be5d3454" p:name="outArrow1" id="cc1f1797351d4e508f38d00bb93f66a4" style="stroke: rgb(153, 153, 153); stroke-opacity: 1; stroke-width: 2; stroke-dasharray: 5, 5;"/>
            <text p:name="text" id="5e83ff0366d649ffb512ea5547de0e5c" style="fill: rgb(0, 0, 0); fill-opacity: 1; font-family: &quot;Liberation Sans&quot;, Arial, sans-serif; font-size: 13px; font-weight: normal; font-style: normal; text-decoration: none;">
                <textPath xlink:href="#98383d4462a24a65aa8cf664be5d3454" startOffset="50%" text-anchor="middle" alignment-baseline="middle">
                    <tspan dy="-4.333333333333333" p:name="textSpan" id="23091ed999a84d3c9e89a9559732b57f" dx="16"/>
                </textPath>
            </text>
        </g></g></g></svg>